[
  {
    "href": "http://codeacademy.com/",
    "css": "index__logo___36QSm"
  },
  {
    "a": "Log in",
    "href": "http://codeacademy.com/login?redirect=about%3A%2F%2Fblank",
    "css": "index__btn___2NSAp index__btn-mint___1Idg6 index__outline___2BtPJ"
  },
  {
    "a": "Sign up",
    "href": "http://codeacademy.com/register?redirect=about%3A%2F%2Fblank",
    "css": "index__btn___2NSAp index__btn-mint___1Idg6"
  },
  {
    "a": " Google",
    "href": "http://codeacademy.com/users/auth/google_oauth2?signin=true",
    "css": "button button--alternate button--google-oauth2 button--with-icon"
  },
  {
    "a": " Facebook",
    "href": "http://codeacademy.com/users/auth/facebook?signin=true",
    "css": "button button--alternate button--facebook button--with-icon"
  },
  {
    "a": "Terms of service",
    "href": "http://codeacademy.com/terms"
  },
  {
    "a": "Google",
    "href": "http://codeacademy.com/users/auth/google_oauth2?signin=true"
  },
  {
    "a": "Facebook",
    "href": "http://codeacademy.com/users/auth/facebook?signin=true"
  },
  {
    "a": "Twitter",
    "href": "http://codeacademy.com/users/auth/twitter?signin=true"
  },
  {
    "a": "Forgot your password?",
    "href": "http://codeacademy.com/secret/new",
    "css": "forgot-password"
  },
  {
    "href": "https://www.codecademy.com/stories/99",
    "css": "link--target "
  },
  {
    "href": "https://www.codecademy.com/stories/102",
    "css": "link--target "
  },
  {
    "href": "https://www.codecademy.com/stories/91",
    "css": "link--target "
  },
  {
    "a": "\n          Read more stories\n",
    "href": "http://codeacademy.com/stories"
  },
  {
    "a": "\n",
    "href": "http://www.reddit.com/r/codecademy"
  },
  {
    "a": "\n",
    "href": "http://stackoverflow.com/tags"
  },
  {
    "a": "\n",
    "href": "https://www.youtube.com/channel/UC5CMtpogD_P3mOoeiDHD5eQ"
  },
  {
    "a": "\n",
    "href": "https://twitter.com/Codecademy"
  },
  {
    "a": "\n",
    "href": "https://www.facebook.com/codecademy"
  },
  {
    "a": "\n",
    "href": "https://instagram.com/codecademy"
  },
  {
    "a": "\n",
    "href": "https://medium.com/about-codecademy"
  },
  {
    "a": "About",
    "href": "http://codeacademy.com/about"
  },
  {
    "a": "Stories",
    "href": "http://codeacademy.com/stories"
  },
  {
    "a": "We're hiring",
    "href": "http://codeacademy.com/about/jobs"
  },
  {
    "a": "Blog",
    "href": "http://codeacademy.com/blog"
  },
  {
    "a": "Articles",
    "href": "http://codeacademy.com/articles"
  },
  {
    "a": "Schools",
    "href": "http://codeacademy.com/schools"
  },
  {
    "a": "Make a Website",
    "href": "http://codeacademy.com/courses/make-a-website"
  },
  {
    "a": "Make an Interactive Website",
    "href": "http://codeacademy.com/skills/make-an-interactive-website"
  },
  {
    "a": "Learn Rails",
    "href": "http://codeacademy.com/courses/learn-rails"
  },
  {
    "a": "Ruby on Rails Authentication",
    "href": "http://codeacademy.com/courses/rails-auth"
  },
  {
    "a": "Learn AngularJS",
    "href": "http://codeacademy.com/courses/learn-angularjs"
  },
  {
    "a": "Learn the Command Line",
    "href": "http://codeacademy.com/courses/learn-the-command-line"
  },
  {
    "a": "Learn SQL",
    "href": "http://codeacademy.com/courses/learn-sql"
  },
  {
    "a": "SQL: Analyzing Business Metrics",
    "href": "http://codeacademy.com/courses/sql-analyzing-business-metrics"
  },
  {
    "a": "Learn Java",
    "href": "http://codeacademy.com/courses/learn-java"
  },
  {
    "a": "Learn Git",
    "href": "http://codeacademy.com/courses/learn-git"
  },
  {
    "a": "HTML & CSS",
    "href": "http://codeacademy.com/tracks/web"
  },
  {
    "a": "JavaScript",
    "href": "http://codeacademy.com/tracks/javascript"
  },
  {
    "a": "jQuery",
    "href": "http://codeacademy.com/tracks/jquery"
  },
  {
    "a": "PHP",
    "href": "http://codeacademy.com/tracks/php"
  },
  {
    "a": "Python",
    "href": "http://codeacademy.com/tracks/python"
  },
  {
    "a": "Ruby",
    "href": "http://codeacademy.com/tracks/ruby"
  },
  {
    "a": "Learn APIs",
    "href": "http://codeacademy.com/apis"
  },
  {
    "a": "Privacy Policy",
    "href": "http://codeacademy.com/policy"
  },
  {
    "a": "Terms",
    "href": "http://codeacademy.com/terms"
  }
]