[
  {
    "a": "Images",
    "href": "http://www.google.com/imghp?hl=en&tab=wi",
    "css": "gb1"
  },
  {
    "a": "Maps",
    "href": "http://maps.google.com/maps?hl=en&tab=wl",
    "css": "gb1"
  },
  {
    "a": "Play",
    "href": "https://play.google.com/?hl=en&tab=w8",
    "css": "gb1"
  },
  {
    "a": "YouTube",
    "href": "http://www.youtube.com/?tab=w1",
    "css": "gb1"
  },
  {
    "a": "News",
    "href": "http://news.google.com/nwshp?hl=en&tab=wn",
    "css": "gb1"
  },
  {
    "a": "Gmail",
    "href": "https://mail.google.com/mail/?tab=wm",
    "css": "gb1"
  },
  {
    "a": "Drive",
    "href": "https://drive.google.com/?tab=wo",
    "css": "gb1"
  },
  {
    "a": "More »",
    "href": "http://www.google.com/intl/en/options/",
    "css": "gb1"
  },
  {
    "a": "Web History",
    "href": "http://www.google.com/history/optout?hl=en",
    "css": "gb4"
  },
  {
    "a": "Settings",
    "href": "http://google.com/preferences?hl=en",
    "css": "gb4"
  },
  {
    "a": "Sign in",
    "href": "https://accounts.google.com/ServiceLogin?hl=en&continue=http://www.google.com/",
    "css": "gb4"
  },
  {
    "a": "Get Google Chrome",
    "href": "http://google.com/chrome/browser/?hl=en&brand=CHNG&utm_source=en-hpp&utm_medium=hpp&utm_campaign=en"
  },
  {
    "a": "Advanced search",
    "href": "http://google.com/advanced_search?hl=en&authuser=0"
  },
  {
    "a": "Language tools",
    "href": "http://google.com/language_tools?hl=en&authuser=0"
  },
  {
    "a": "Advertising Programs",
    "href": "http://google.com/intl/en/ads/"
  },
  {
    "a": "Business Solutions",
    "href": "http://google.com/services/"
  },
  {
    "a": "+Google",
    "href": "https://plus.google.com/116899029375914044550"
  },
  {
    "a": "About Google",
    "href": "http://google.com/intl/en/about.html"
  },
  {
    "a": "Privacy",
    "href": "http://google.com/intl/en/policies/privacy/"
  },
  {
    "a": "Terms",
    "href": "http://google.com/intl/en/policies/terms/"
  }
]